com\climatesi\ghg\business_users\api\beans\DataEntryUser.class
com\climatesi\ghg\business_users\api\facades\CadminManager.class
com\climatesi\ghg\business_users\implGeneral\beans\EmissionYear.class
com\climatesi\ghg\business_users\implGeneral\beans\AdminBean.class
com\climatesi\ghg\business_users\api\facades\EmployeerManager.class
com\climatesi\ghg\business_users\implGeneral\persistence\AdminDAO.class
com\climatesi\ghg\business_users\implGeneral\persistence\ClientDAO.class
com\climatesi\ghg\business_users\implGeneral\beans\EmployeeBean.class
com\climatesi\ghg\business_users\api\beans\Admin.class
com\climatesi\ghg\business_users\api\facades\AdminManager.class
com\climatesi\ghg\business_users\implGeneral\facades\EmployeeManagerFacade.class
com\climatesi\ghg\business_users\api\facades\ClientManager.class
com\climatesi\ghg\business_users\implGeneral\persistence\DataEntryUserDAO.class
com\climatesi\ghg\business_users\implGeneral\persistence\CadminDAO.class
com\climatesi\ghg\business_users\api\enums\CadminStatus.class
com\climatesi\ghg\business_users\api\beans\Client.class
com\climatesi\ghg\business_users\api\beans\Employee.class
com\climatesi\ghg\business_users\implGeneral\beans\DataEntryUserBean.class
com\climatesi\ghg\business_users\implGeneral\facades\ClientManagerFacade.class
com\climatesi\ghg\business_users\implGeneral\facades\AdminManagerFacade.class
com\climatesi\ghg\business_users\implGeneral\facades\CadminManagerFacade.class
com\climatesi\ghg\business_users\api\facades\DataEntryUserManager.class
com\climatesi\ghg\business_users\api\BusinessUserFactory.class
com\climatesi\ghg\business_users\implGeneral\beans\ComAdminBean.class
com\climatesi\ghg\business_users\implGeneral\persistence\EmployeeDAO.class
com\climatesi\ghg\business_users\api\beans\ComAdmin.class
com\climatesi\ghg\business_users\implGeneral\beans\ClientBean.class
com\climatesi\ghg\business_users\api\enums\UserTypes.class
com\climatesi\ghg\business_users\implGeneral\facades\DataEntryUserFacade.class
